{
  "items": [
    {
      "id": 1,
      "name": "Goku",
      "ki": "60.000.000",
      "maxKi": "90 Septillion",
      "race": "Saiyan",
      "gender": "Male",
      "description": "El protagonista de la serie, conocido por su gran poder y personalidad amigable. Originalmente enviado a la Tierra como un infante volador con la misi\u00f3n de conquistarla. Sin embargo, el caer por un barranco le proporcion\u00f3 un brutal golpe que si bien casi lo mata, este alter\u00f3 su memoria y anul\u00f3 todos los instintos violentos de su especie, lo que lo hizo crecer con un coraz\u00f3n puro y bondadoso, pero conservando todos los poderes de su raza. No obstante, en la nueva continuidad de Dragon Ball se establece que \u00e9l fue enviado por sus padres a la Tierra con el objetivo de sobrevivir a toda costa a la destrucci\u00f3n de su planeta por parte de Freeza. M\u00e1s tarde, Kakarot, ahora conocido como Son Goku, se convertir\u00eda en el pr\u00edncipe consorte del monte Fry-pan y l\u00edder de los Guerreros Z, as\u00ed como el mayor defensor de la Tierra y del Universo 7, logrando mantenerlos a salvo de la destrucci\u00f3n en innumerables ocasiones, a pesar de no considerarse a s\u00ed mismo como un h\u00e9roe o salvador.",
      "image": "https://dragonball-api.com/characters/goku_normal.webp",
      "affiliation": "Z Fighter",
      "deletedAt": null
    },
    {
      "id": 2,
      "name": "Vegeta",
      "ki": "54.000.000",
      "maxKi": "19.84 Septillion",
      "race": "Saiyan",
      "gender": "Male",
      "description": "Pr\u00edncipe de los Saiyans, inicialmente un villano, pero luego se une a los Z Fighters. A pesar de que a inicios de Dragon Ball Z, Vegeta cumple un papel antag\u00f3nico, poco despu\u00e9s decide rebelarse ante el Imperio de Freeza, volvi\u00e9ndose un aliado clave para los Guerreros Z. Con el paso del tiempo llegar\u00eda a cambiar su manera de ser, optando por permanecer y vivir en la Tierra para luchar a su lado contra las inminentes adversidades que superar. Junto con Piccolo, \u00e9l es de los antiguos enemigos de Goku que ha evolucionando al pasar de ser un villano y antih\u00e9roe, a finalmente un h\u00e9roe a lo largo del transcurso de la historia, convirti\u00e9ndose as\u00ed en el deuteragonista de la serie.",
      "image": "https://dragonball-api.com/characters/vegeta_normal.webp",
      "affiliation": "Z Fighter",
      "deletedAt": null
    },
    {
      "id": 3,
      "name": "Piccolo",
      "ki": "2.000.000",
      "maxKi": "500.000.000",
      "race": "Namekian",
      "gender": "Male",
      "description": "Es un namekiano que surgi\u00f3 tras ser creado en los \u00faltimos momentos de vida de su padre, siendo su actual reencarnaci\u00f3n. Aunque en un principio fue el archienemigo de Son Goku, con el paso del tiempo fue haci\u00e9ndose menos malvado hasta finalmente convertirse en un ser bondadoso y miembro de los Guerreros Z. A trav\u00e9s del tiempo, tambi\u00e9n comenz\u00f3 a tomarle cari\u00f1o a su disc\u00edpulo Son Gohan, a quien ve\u00eda como una especie de \"v\u00e1stago\" y formando un lazo de amistad con este.",
      "image": "https://dragonball-api.com/characters/picolo_normal.webp",
      "affiliation": "Z Fighter",
      "deletedAt": null
    },
    {
      "id": 4,
      "name": "Bulma",
      "ki": "0",
      "maxKi": "0",
      "race": "Human",
      "gender": "Female",
      "description": "Bulma es la protagonista femenina de la serie manga Dragon Ball y sus adaptaciones al anime Dragon Ball, Dragon Ball Z, Dragon Ball Super y Dragon Ball GT. Es hija del Dr. Brief y su esposa Panchy, hermana menor de Tights y una gran amiga de Son Goku con quien inicia la b\u00fasqueda de las Esferas del Drag\u00f3n. En Dragon Ball Z tuvo a Trunks, primog\u00e9nito de quien ser\u00eda su esposo Vegeta, a su hija Bra[3] y su hijo adulto del tiempo alterno Trunks del Futuro Alternativo.",
      "image": "https://dragonball-api.com/characters/bulma.webp",
      "affiliation": "Z Fighter",
      "deletedAt": null
    },
    {
      "id": 5,
      "name": "Freezer",
      "ki": "530.000",
      "maxKi": "52.71 Septillion",
      "race": "Frieza Race",
      "gender": "Male",
      "description": "Freezer es el tirano espacial y el principal antagonista de la saga de Freezer.",
      "image": "https://dragonball-api.com/characters/Freezer.webp",
      "affiliation": "Army of Frieza",
      "deletedAt": null
    },
    {
      "id": 6,
      "name": "Zarbon",
      "ki": "20.000",
      "maxKi": "30.000",
      "race": "Frieza Race",
      "gender": "Male",
      "description": "Zarbon es uno de los secuaces de Freezer y un luchador poderoso.",
      "image": "https://dragonball-api.com/characters/zarbon.webp",
      "affiliation": "Army of Frieza",
      "deletedAt": null
    },
    {
      "id": 7,
      "name": "Dodoria",
      "ki": "18.000",
      "maxKi": "20.000",
      "race": "Frieza Race",
      "gender": "Male",
      "description": "Dodoria es otro secuaz de Freezer conocido por su brutalidad.",
      "image": "https://dragonball-api.com/characters/dodoria.webp",
      "affiliation": "Army of Frieza",
      "deletedAt": null
    },
    {
      "id": 8,
      "name": "Ginyu",
      "ki": "9.000",
      "maxKi": "25.000",
      "race": "Frieza Race",
      "gender": "Male",
      "description": "Ginyu es el l\u00edder del la \u00e9lite de mercenarios de mayor prestigio del Ej\u00e9rcito de Freeza, la cual lleva el nombre de Fuerzas Especiales Ginew en su honor[9].",
      "image": "https://dragonball-api.com/characters/ginyu.webp",
      "affiliation": "Army of Frieza",
      "deletedAt": null
    },
    {
      "id": 9,
      "name": "Celula",
      "ki": "250.000.000",
      "maxKi": "5 Billion",
      "race": "Android",
      "gender": "Male",
      "description": "Cell conocido como C\u00e9lula en Espa\u00f1a, es un bioandroide creado por la computadora del Dr. Gero, quien vino del futuro de la l\u00ednea 3 con la intenci\u00f3n de vengarse de Goku por haber acabado con el Ej\u00e9rcito del List\u00f3n Rojo, y con ello el sue\u00f1o de todo villano: dominar el mundo. Es el antagonista principal del Arco de los Androides y Cell.",
      "image": "https://dragonball-api.com/characters/celula.webp",
      "affiliation": "Freelancer",
      "deletedAt": null
    },
    {
      "id": 10,
      "name": "Gohan",
      "ki": "45.000.000",
      "maxKi": "40 septillion",
      "race": "Saiyan",
      "gender": "Male",
      "description": "Son Gohanda en su tiempo en Espa\u00f1a, o simplemente Gohan en Hispanoam\u00e9rica, es uno de los personajes principales de los arcos argumentales de Dragon Ball Z, Dragon Ball Super y Dragon Ball GT. Es un mestizo entre saiyano y humano terr\u00edcola. Es el primer hijo de Son Goku y Chi-Chi, hermano mayor de Son Goten, esposo de Videl y padre de Pan.",
      "image": "https://dragonball-api.com/characters/gohan.webp",
      "affiliation": "Z Fighter",
      "deletedAt": null
    }
  ],
  "meta": {
    "totalItems": 58,
    "itemCount": 10,
    "itemsPerPage": 10,
    "totalPages": 6,
    "currentPage": 1
  },
  "links": {
    "first": "https://dragonball-api.com/api/characters?limit=10",
    "previous": "",
    "next": "https://dragonball-api.com/api/characters?page=2&limit=10",
    "last": "https://dragonball-api.com/api/characters?page=6&limit=10"
  }
}